﻿
DisplayName "ヘルゴンド大陸西の大穴"



EVENT   1
 PAGE   1
  0()



EVENT   2
 PAGE   1
  0()
 PAGE   2
  // condition: switch 31 is ON
  0()



EVENT   3
 PAGE   1
  Wait(60)
  ShowMessageFace("tamamo_fc1",0,0,2,1)
  ShowMessage("\\n<Tamamo>やはり、Ei-Roブリッジはここに通じているか。")
  ShowMessage("リリス達に楔を打たせ、精神体の通り道を繋いだな……")
  ShowMessageFace("tamamo_fc1",0,0,2,2)
  ShowMessage("\\n<Tamamo>そして向こう側が、邪神様の支配する並行世界……")
  ShowMessage("ふむ、連中の開けた精神通路を辿ってみるか。")
  ShowMessageFace("tamamo_fc1",0,0,2,3)
  ShowMessage("\\n<Tamamo>……………………")
  ShowMessageFace("tamamo_fc1",3,0,2,4)
  ShowMessage("\\n<Tamamo>……これは、なんじゃ？")
  ShowMessage("向こうの世界とこの世界の間に、もう一つの大地があるとは……")
  ShowMessageFace("tamamo_fc1",3,0,2,5)
  ShowMessage("\\n<Tamamo>しかも、この巨大さ……小惑星規模ではないか。")
  ShowMessage("星を丸ごとひとつ、中継ステーションに仕立てたと見える。")
  ShowMessageFace("tamamo_fc1",3,0,2,6)
  ShowMessage("\\n<Tamamo>おそらく、向こうのウチ……玉藻のみの仕業ではあるまい。")
  ShowMessage("この大地を生み出すのに、華音と禍撫あたりも噛んでおるな……")
  ShowMessageFace("tamamo_fc1",3,0,2,7)
  ShowMessage("\\n<Tamamo>ここを陥とすとなると、流石にウチの独力では……")
  Wait(60)
  250(bytes(0x04,0x08,0x6f,0x3a,0x0c,0x52,0x50,0x47,0x3a,0x3a,0x53,0x45,0x08,0x3a,0x0a,0x40,0x6e,0x61,0x6d,0x65,0x49,0x22,0x0d,0x6d,0x6f,0x6e,0x5f,0x77,0x61,0x72,0x70,0x06,0x3a,0x06,0x45,0x54,0x3a,0x0b,0x40,0x70,0x69,0x74,0x63,0x68,0x69,0x69,0x3a,0x0c,0x40,0x76,0x6f,0x6c,0x75,0x6d,0x65,0x69,0x69))
  ChangeSwitch(31,31,0)
  Wait(60)
  205(2,bytes(0x04,0x08,0x6f,0x3a,0x13,0x52,0x50,0x47,0x3a,0x3a,0x4d,0x6f,0x76,0x65,0x52,0x6f,0x75,0x74,0x65,0x09,0x3a,0x0c,0x40,0x72,0x65,0x70,0x65,0x61,0x74,0x46,0x3a,0x0f,0x40,0x73,0x6b,0x69,0x70,0x70,0x61,0x62,0x6c,0x65,0x46,0x3a,0x0a,0x40,0x77,0x61,0x69,0x74,0x54,0x3a,0x0a,0x40,0x6c,0x69,0x73,0x74,0x5b,0x07,0x6f,0x3a,0x15,0x52,0x50,0x47,0x3a,0x3a,0x4d,0x6f,0x76,0x65,0x43,0x6f,0x6d,0x6d,0x61,0x6e,0x64,0x07,0x3a,0x0a,0x40,0x63,0x6f,0x64,0x65,0x69,0x07,0x3a,0x10,0x40,0x70,0x61,0x72,0x61,0x6d,0x65,0x74,0x65,0x72,0x73,0x5b,0x00,0x6f,0x3b,0x0a,0x07,0x3b,0x0b,0x69,0x00,0x3b,0x0c,0x5b,0x00))
  ShowMessageFace("hatibi_fc1",0,0,2,8)
  ShowMessage("\\n<八尾>……よろしいでしょうか、たまも様。")
  ShowMessage("少々、お耳に入れたい事が……")
  205(1,bytes(0x04,0x08,0x6f,0x3a,0x13,0x52,0x50,0x47,0x3a,0x3a,0x4d,0x6f,0x76,0x65,0x52,0x6f,0x75,0x74,0x65,0x09,0x3a,0x0c,0x40,0x72,0x65,0x70,0x65,0x61,0x74,0x46,0x3a,0x0f,0x40,0x73,0x6b,0x69,0x70,0x70,0x61,0x62,0x6c,0x65,0x46,0x3a,0x0a,0x40,0x77,0x61,0x69,0x74,0x54,0x3a,0x0a,0x40,0x6c,0x69,0x73,0x74,0x5b,0x07,0x6f,0x3a,0x15,0x52,0x50,0x47,0x3a,0x3a,0x4d,0x6f,0x76,0x65,0x43,0x6f,0x6d,0x6d,0x61,0x6e,0x64,0x07,0x3a,0x0a,0x40,0x63,0x6f,0x64,0x65,0x69,0x17,0x3a,0x10,0x40,0x70,0x61,0x72,0x61,0x6d,0x65,0x74,0x65,0x72,0x73,0x5b,0x00,0x6f,0x3b,0x0a,0x07,0x3b,0x0b,0x69,0x00,0x3b,0x0c,0x5b,0x00))
  ShowMessageFace("tamamo_fc1",3,0,2,9)
  ShowMessage("\\n<Tamamo>……黒狸だな。")
  ShowMessage("おおかた、黒のアリスに唆されたか。")
  ShowMessageFace("hatibi_fc1",0,0,2,10)
  ShowMessage("\\n<八尾>はっ、すでに御存知だったようで。")
  ShowMessage("第二次狐狸大戦も、もはや目前かと……")
  ShowMessageFace("tamamo_fc1",3,0,2,11)
  ShowMessage("\\n<Tamamo>元来が女王級なのに加え、黒のアリスから力を得たとなれば……")
  ShowMessage("今の黒狸は、並の脅威ではあるまい。")
  ShowMessageFace("tamamo_fc1",3,0,2,12)
  ShowMessage("\\n<Tamamo>仕方あるまい、ルカ達を頼らざるを得んか……")
  ShowMessageFace("hatibi_fc1",0,0,2,13)
  ShowMessage("\\n<八尾>はっ、仰せの通りに……")
  Wait(60)
  242(2)
  221()
  Wait(120)
  ChangeSwitch(31,31,1)
  TeleportPlayer(0,843,1,0,0,2)
  222()
  0()
