﻿// EVENT 0668
Name "Event: Queen Alraune"

ChangeSwitch(73,73,0)
If(1,129,0,0,0)
 ShowMessageFace("queenalraune_fc1",0,0,2,1)
 ShowMessage("【クィーンアルラウネ】")
 ShowMessage("味方全員の弱体効果を解除する白魔法……")
 ShowMessage("「オールクリア」を、この私が伝授しましょう。")
 ShowMessageFace("",0,0,2,2)
 ShowMessage("Who will learn All Clear?")
 DefineLabel("選択")
 355("names = party_members.collect{|m|m.name}")
 655("unlimited_choices(11, names)")
 655("actor = party_members[$game_variables[11]]")
 655("$game_variables[10] = actor ? actor.id : 0")
 If(1,10,0,0,0)
  ChangeSwitch(73,73,1)
  EndEventProcessing()
  0()
 EndIf()
 If(12,"actor_skill_have?(v(10),1493)")
  ShowMessageFace("",0,0,2,3)
  ShowMessage("That character already knows All Clear...")
  JumpToLabel("選択")
  0()
 EndIf()
 ChangeVariable(129,129,0,0,1)
 318(1,10,0,1493)
 250(bytes(0x04,0x08,0x6f,0x3a,0x0c,0x52,0x50,0x47,0x3a,0x3a,0x53,0x45,0x08,0x3a,0x0a,0x40,0x6e,0x61,0x6d,0x65,0x49,0x22,0x0a,0x49,0x74,0x65,0x6d,0x31,0x06,0x3a,0x06,0x45,0x54,0x3a,0x0b,0x40,0x70,0x69,0x74,0x63,0x68,0x69,0x69,0x3a,0x0c,0x40,0x76,0x6f,0x6c,0x75,0x6d,0x65,0x69,0x55))
 ShowMessageFace("",0,0,2,4)
 ShowMessage("You learned \\I[207]\\C[1]All Clear\\C[0]!")
 ChangeSwitch(73,73,1)
 EndEventProcessing()
 0()
EndIf()
If(1,129,0,1,0)
 ShowMessageFace("queenalraune_fc1",0,0,2,5)
 ShowMessage("【クィーンアルラウネ】")
 ShowMessage("あなたも咲き乱れて下さいね……")
 ChangeSwitch(73,73,1)
 EndEventProcessing()
 0()
EndIf()
0()
